<svg preserveAspectRatio="none" width="1920" height="589" viewBox="0 0 1920 589" fill="none" xmlns="http://www.w3.org/2000/svg">
<g filter="url(#filter0_d)">
<path d="M923.015 452C326.747 813.076 -36.9847 130.887 -36.9849 256V79H1919.02V520.358C1818.02 640.5 1519.28 90.9241 923.015 452Z" fill="#FFD400"/>
</g>
<path d="M929.174 418.688C350.185 806.867 -44.608 142.17 -38.8406 267.151L-47 90.3389L1906.92 0.17098L1927.27 441.06C1831.91 565.73 1508.16 30.5093 929.174 418.688Z" fill="#FF0098"/>
<defs>
<filter id="filter0_d" x="-66.9849" y="49" width="2016" height="539.615" filterUnits="userSpaceOnUse" color-interpolation-filters="sRGB">
<feFlood flood-opacity="0" result="BackgroundImageFix"/>
<feColorMatrix in="SourceAlpha" type="matrix" values="0 0 0 0 0 0 0 0 0 0 0 0 0 0 0 0 0 0 127 0"/>
<feOffset/>
<feGaussianBlur stdDeviation="15"/>
<feColorMatrix type="matrix" values="0 0 0 0 0 0 0 0 0 0 0 0 0 0 0 0 0 0 0.2 0"/>
<feBlend mode="normal" in2="BackgroundImageFix" result="effect1_dropShadow"/>
<feBlend mode="normal" in="SourceGraphic" in2="effect1_dropShadow" result="shape"/>
</filter>
</defs>
</svg>
