<svg width="1487" height="558" viewBox="0 0 1487 558" fill="none" xmlns="http://www.w3.org/2000/svg">
<path d="M857 441.911L864.765 412.933L893.742 420.698L901.507 391.72L930.485 399.485L938.249 370.507L967.227 378.271L974.992 349.294L1003.97 357.058" stroke="white" stroke-width="10"/>
<path d="M1338 219.911L1345.76 190.934L1374.74 198.698L1382.51 169.72L1411.48 177.485L1419.25 148.507L1448.23 156.272L1455.99 127.294L1484.97 135.058" stroke="white" stroke-width="10"/>
<path d="M518 122.911L525.765 93.9332L554.742 101.698L562.507 72.72L591.485 80.4846L599.249 51.5067L628.227 59.2713L635.992 30.2935L664.969 38.0581" stroke="white" stroke-width="10"/>
<path d="M5.00004 482.911L12.7646 453.933L41.7425 461.698L49.507 432.72L78.4849 440.485L86.2491 411.507L115.227 419.271L122.992 390.294L151.969 398.058" stroke="white" stroke-width="10"/>
<path d="M1388.64 557.99L1350 547.637C1355.92 525.559 1379.67 514.176 1398.99 519.353L1388.64 557.99Z" fill="white"/>
<path d="M437.637 405.99L399 395.637C404.916 373.559 428.671 362.176 447.99 367.353L437.637 405.99Z" fill="white"/>
<path d="M1018.64 55.9898L980 45.637C985.916 23.5587 1009.67 12.1764 1028.99 17.3528L1018.64 55.9898Z" fill="white"/>
</svg>

