<svg width="178" height="178" viewBox="0 0 178 178" fill="none" xmlns="http://www.w3.org/2000/svg">
<path d="M92.8523 173.706L71.6391 152.492L92.8523 131.279L71.6391 110.066L92.8524 88.8527L71.6389 67.6397L92.8522 46.4264L71.639 25.2132L92.8523 3.99996" stroke="#FFD400" stroke-width="10"/>
</svg>
