<svg preserveAspectRatio="none" width="1920" height="1087" viewBox="0 0 1920 1087" fill="none" xmlns="http://www.w3.org/2000/svg">
<path d="M2106.5 603.5C1966.81 464.785 1483.3 309.749 1063.85 522.849C644.404 735.949 160.682 619.036 -28.7487 533.941" stroke="#FFD400" stroke-width="3"/>
</svg>
