<svg width="607" height="535" viewBox="0 0 607 535" fill="none" xmlns="http://www.w3.org/2000/svg">
<path fill-rule="evenodd" clip-rule="evenodd" d="M53.1266 195.333C25.8001 255.527 36.2556 333.282 92.0313 389.44C144.258 442.024 235.589 439.317 313.888 457.879C386.997 475.21 464.583 517.088 527.202 492.601C590.236 467.953 593.158 399.911 606.27 343.547C618.883 289.324 638.288 231.841 599.912 180.045C561.082 127.637 485.961 99.6452 414.042 84.0986C347.049 69.6166 283.807 80.3425 223.984 98.78C155.116 120.005 78.23 140.036 53.1266 195.333Z" fill="white"/>
</svg>
