<svg preserveAspectRatio="none" width="376" height="883" viewBox="0 0 376 883" fill="none" xmlns="http://www.w3.org/2000/svg">
<path d="M41.5283 852H171.54C113.894 869.054 70.2842 867.107 41.5283 852Z" fill="#FFFEF2"/>
<path d="M171.54 852H41.5283C36.0629 849.129 31.1341 845.782 26.7474 842H201.199C200.3 842.331 199.396 842.664 198.489 843C189.191 846.443 180.207 849.436 171.54 852Z" fill="#FFFEF2"/>
<path d="M375.489 0H0.489014V729C0.489036 801.743 95.489 829.436 198.489 793C301.489 756.565 375.489 749.546 375.489 832.284V0Z" fill="#FFFEF2"/>
<path fill-rule="evenodd" clip-rule="evenodd" d="M375.489 842H369.581C370.767 845.081 371.766 848.413 372.587 852H375.489V842.284C375.489 842.189 375.489 842.095 375.489 842Z" fill="#FFFEF2"/>
<path d="M0.489014 739V779C0.489022 805.175 9.3583 827.008 26.7474 842H201.199C303.125 804.509 353.493 800.202 369.581 842H375.489C375.435 821.457 369.568 806.002 359.505 795.053C329.177 762.057 260.739 770 198.489 803C115.489 847 0.489036 811.743 0.489014 739Z" fill="#FFFEF2"/>
<path d="M198.489 793C95.489 829.436 0.489036 801.743 0.489014 729V739C0.489036 811.743 115.489 847 198.489 803C260.739 770 329.177 762.057 359.505 795.053C369.568 806.002 375.435 821.457 375.489 842V832.284C375.489 749.546 301.489 756.565 198.489 793Z" fill="#FFFEF2"/>
<path d="M41.5283 852H171.54C113.894 869.054 70.2842 867.107 41.5283 852Z" fill="#FF0098"/>
<path d="M372.587 852H375.489V882.284C375.489 870.672 374.553 860.601 372.587 852Z" fill="#FF0098"/>
<path fill-rule="evenodd" clip-rule="evenodd" d="M41.5283 852H171.54C180.207 849.436 189.191 846.443 198.489 843C199.396 842.664 200.3 842.331 201.199 842C303.125 804.509 353.493 800.202 369.581 842H375.489C369.169 770.252 302.041 792.998 201.479 827.073L201.478 827.073L201.463 827.078C193.827 829.666 185.999 832.318 177.989 835C169.655 837.79 161.588 840.115 153.793 842C117.292 850.825 86.7698 849.988 62.8155 842C22.2209 828.463 0.489027 794.389 0.489014 752V792C0.489022 818.175 9.3583 827.008 26.7474 842C31.1341 845.782 36.0629 849.129 41.5283 852Z" fill="#FF0098"/>
<path d="M375.489 842.284V852H372.587C371.766 848.413 370.767 845.081 369.581 842H375.489C375.489 842.095 375.489 842.189 375.489 842.284Z" fill="#FF0098"/>
</svg>
