<svg width="375" height="131" viewBox="0 0 375 131" fill="none" xmlns="http://www.w3.org/2000/svg">
<path d="M41.0393 100H171.051C113.405 117.054 69.7952 115.107 41.0393 100Z" fill="#FF0098"/>
<path d="M372.098 100H375V130.284C375 118.672 374.064 108.601 372.098 100Z" fill="#FF0098"/>
<path fill-rule="evenodd" clip-rule="evenodd" d="M41.0393 100H171.051C179.718 97.4361 188.702 94.4428 198 91.0001C198.907 90.6642 199.811 90.3308 200.71 90.0001C302.636 52.5095 353.004 48.2018 369.092 90.0001H375C368.68 18.2518 301.552 40.9978 200.99 75.0729L200.989 75.0732L200.974 75.0783C193.338 77.6657 185.509 80.3184 177.5 83C169.166 85.7903 161.099 88.1155 153.304 90.0001C116.803 98.8253 86.2808 97.9882 62.3265 90.0001C21.7319 76.4629 1.2968e-05 42.3887 0 0V40C8.00781e-06 66.1752 8.86929 75.0078 26.2584 90.0001C30.6451 93.7821 35.5739 97.1288 41.0393 100Z" fill="#FF0098"/>
<path d="M375 90.2841V100H372.098C371.277 96.4128 370.278 93.0811 369.092 90.0001H375C375 90.0946 375 90.1893 375 90.2841Z" fill="#FF0098"/>
</svg>
