<svg preserveAspectRatio="none" width="375" height="305" viewBox="0 0 375 305" fill="none" xmlns="http://www.w3.org/2000/svg">
<path d="M187.5 235C294 215.5 375 230.257 375 303V180H0V199.716C0 282.454 81 254.5 187.5 235Z" fill="#FFD400"/>
<path d="M187.218 228.006C292.773 203.909 374.336 215.143 377.489 287.817L372.159 164.933L-2.48907 181.183L-1.6347 200.88C1.95063 283.541 81.6632 252.103 187.218 228.006Z" fill="#FF0098"/>
<g filter="url(#filter0_d)">
<path d="M177 218C283.5 192.5 375 209.257 375 282V21.9998C375 21.9998 323 67.4999 187.5 21.9998C52 -23.5003 0 21.9998 0 21.9998V178.716C0 261.454 70.5 243.5 177 218Z" fill="#3D5ECC"/>
</g>
<defs>
<filter id="filter0_d" x="-5" y="0.777527" width="385" height="290.222" filterUnits="userSpaceOnUse" color-interpolation-filters="sRGB">
<feFlood flood-opacity="0" result="BackgroundImageFix"/>
<feColorMatrix in="SourceAlpha" type="matrix" values="0 0 0 0 0 0 0 0 0 0 0 0 0 0 0 0 0 0 127 0"/>
<feOffset dy="4"/>
<feGaussianBlur stdDeviation="2.5"/>
<feColorMatrix type="matrix" values="0 0 0 0 0 0 0 0 0 0 0 0 0 0 0 0 0 0 0.1 0"/>
<feBlend mode="normal" in2="BackgroundImageFix" result="effect1_dropShadow"/>
<feBlend mode="normal" in="SourceGraphic" in2="effect1_dropShadow" result="shape"/>
</filter>
</defs>
</svg>
