<svg width="28" height="26" viewBox="0 0 28 26" fill="none" xmlns="http://www.w3.org/2000/svg">
<rect width="28" height="2.36364" fill="white"/>
<rect y="11.8182" width="28" height="2.36364" fill="white"/>
<rect y="23.6362" width="28" height="2.36364" fill="white"/>
</svg>
