<svg width="375" height="119" viewBox="0 0 375 119" fill="none" xmlns="http://www.w3.org/2000/svg">
<path d="M187.5 70.9998C294 51.4998 375 66.2568 375 139V15.9998H0V35.7158C0 118.454 81 90.4998 187.5 70.9998Z" fill="#FFD400"/>
<path d="M187.218 64.0061C292.773 39.9094 374.336 51.1426 377.489 123.817L372.159 0.932739L-2.48907 17.1828L-1.6347 36.8803C1.95063 119.541 81.6632 88.1028 187.218 64.0061Z" fill="#FF0098"/>
</svg>

