<svg width="404" height="412" viewBox="0 0 404 412" fill="none" xmlns="http://www.w3.org/2000/svg">
<path d="M183.272 329.458C143.533 340.9 87.9253 333.673 65.6357 302.537C43.2846 271.471 54.1904 216.566 72.9333 171.529C91.6062 126.431 160.747 84.5202 192.836 75.2823C224.926 66.0444 243.94 114.918 296.917 131.491C349.833 148.133 393.951 139.165 396.113 164.383C398.213 189.671 334.381 223.709 290.561 255.747C246.75 287.916 222.88 318.026 183.272 329.458Z" fill="#FFB700"/>
</svg>
