<?xml version="1.0" encoding="utf-8"?>
<!-- Generator: Adobe Illustrator 21.0.0, SVG Export Plug-In . SVG Version: 6.00 Build 0)  -->
<svg preserveAspectRatio="none" version="1.1" id="Слой_1" xmlns="http://www.w3.org/2000/svg" xmlns:xlink="http://www.w3.org/1999/xlink" x="0px" y="0px"
	 viewBox="0 0 386 643" style="enable-background:new 0 0 386 643;" xml:space="preserve">
<style type="text/css">
	.st0{fill:#FF0098;}
	.st1{fill:#FFD400;}
	.st2{fill:#3D5ECC;}
</style>
<path class="st0" d="M265.9,59.5c38.5,4.8,119.6,19.5,119.6-46v98H0.5V84C0.5-27,142.7,44,265.9,59.5z"/>
<path class="st1" d="M286.4,66.5c17.3,2,99.1,12.5,99.1-53v89H0.5V84C13.8-12.5,154.5,51.5,286.4,66.5z"/>
<path class="st1" d="M203.8,579C98,542.6,0.5,570.3,0.5,643V530h385C385.5,612.7,309.5,615.4,203.8,579z"/>
<g>
	<path class="st2" d="M203.8,569C98,532.6,0.5,560.3,0.5,633V520h385C385.5,602.7,309.5,605.4,203.8,569z"/>
	<path class="st2" d="M385.5,1c0,70-48.3,80.5-107.8,70C224.1,61.5,0.5-8.5,0.5,96.8V520h385V1z"/>
</g>
</svg>
