<svg width="27" height="27" viewBox="0 0 27 27" fill="none" xmlns="http://www.w3.org/2000/svg">
<path d="M21.2502 26.9444L-0.000171304 21.2504C3.25355 9.1073 16.319 2.84701 26.9442 5.69402L21.2502 26.9444Z" fill="white"/>
</svg>
