<svg width="96" height="96" viewBox="0 0 96 96" fill="none" xmlns="http://www.w3.org/2000/svg">
<path d="M10 10V14.2817C21.0474 17.8693 20.5556 21.2394 20.5556 29.2676C20.5556 37.2958 20.5556 74.2253 20.5556 74.2253V76.3662C20.5556 77.5486 21.5007 78.507 22.6667 78.507H86V74.2253H24.7778C24.7778 74.2253 24.7778 38.3662 24.7778 29.2676C24.7778 22.0342 24.25 18.5634 22.1389 16.4225C19.8436 14.0949 14.75 10 10 10Z" fill="#90A4AE"/>
<path d="M45.8889 35.6901H50.1111V31.4084H60.6667V35.6901H64.8889C64.864 33.5626 65.2176 30.6336 63.804 28.8414C61.4793 25.894 49.2984 25.894 46.9738 28.8414C45.5602 30.6336 45.9138 33.5626 45.8889 35.6901Z" fill="#795549"/>
<path d="M33.2223 33.5493V35.6902H39.5556V33.5493H33.2223ZM71.2223 33.5493V35.6902H77.5556V33.5493H71.2223Z" fill="#79919D"/>
<path d="M29 35.6902V74.2254H41.6667V35.6902H29Z" fill="#FF9901"/>
<path d="M41.6667 35.6902V74.2254H45.889V35.6902H41.6667Z" fill="#D77D05"/>
<path d="M45.8889 35.6902V74.2254H64.8889V35.6902H45.8889Z" fill="#FF9901"/>
<path d="M64.8889 35.6902V74.2254H69.1111V35.6902H64.8889Z" fill="#D77D05"/>
<path d="M69.1111 35.6902V74.2254H81.7778V35.6902H69.1111Z" fill="#FF9901"/>
<ellipse cx="32.6944" cy="82.2536" rx="3.69444" ry="3.74648" fill="#556F7B"/>
<ellipse cx="75.9722" cy="82.2536" rx="3.69444" ry="3.74648" fill="#556F7B"/>
</svg>
