<svg preserveAspectRatio="none" width="375" height="766" viewBox="0 0 375 766" fill="none" xmlns="http://www.w3.org/2000/svg">
<path d="M402.898 236.066C386.127 124.085 312.396 237.843 78.8394 474.98C-154.717 712.118 -236.849 581.717 -289.564 523.675" stroke="#FFD400" stroke-width="3"/>
</svg>
