<svg preserveAspectRatio="none" width="375" height="766" viewBox="0 0 375 766" fill="none" xmlns="http://www.w3.org/2000/svg">
<path d="M402.898 529.654C386.127 641.634 312.396 527.877 78.8394 290.739C-154.717 53.6016 -236.849 184.003 -289.564 242.045" stroke="#FFD400" stroke-width="3"/>
</svg>
