<svg width="96" height="96" viewBox="0 0 96 96" fill="none" xmlns="http://www.w3.org/2000/svg">
<rect x="70.71" y="23.1868" width="4.48593" height="69.5319" fill="#795548"/>
<path d="M42.0867 25.7857L35.9188 44.8509C34.1649 44.7904 34.4999 49.0553 31.9933 48.7761C26.7532 48.1923 17.4213 44.0778 18.0282 40.133C20.4582 31.7219 29.0775 17.2624 42.0867 25.7857Z" fill="#5EC08F"/>
<path d="M35.9437 45.0555L42.0867 25.7855C41.1522 25.0379 39.0587 23.7669 38.1615 24.6641C37.2643 25.5612 32.5541 39.2433 30.3111 45.9722C29.8523 47.3484 29.7505 48.2152 31.9933 48.7759C33.3681 48.9291 34.3435 47.8552 34.8222 46.7378C34.872 46.6214 34.7723 46.2896 34.8222 46.177C35.1665 45.3993 35.2519 45.0317 35.9437 45.0555Z" fill="#41A571"/>
<path fill-rule="evenodd" clip-rule="evenodd" d="M76.9611 29.1574C77.9991 31.0606 77.2979 33.4449 75.3948 34.4829L63.4347 40.94L63.4336 36.4357L63.4603 32.0665L71.6356 27.5911C73.5387 26.553 75.923 27.2543 76.9611 29.1574Z" fill="#FFB74D"/>
<path fill-rule="evenodd" clip-rule="evenodd" d="M41.1082 66.8144C43.0353 67.8072 42.2552 70.44 41.2625 72.3672L31.7299 90.8716C30.7371 92.7988 28.37 93.5562 26.4429 92.5635C24.5158 91.5707 23.7583 89.2037 24.7511 87.2765L33.4856 68.5893C34.4784 66.6622 39.1811 65.8217 41.1082 66.8144Z" fill="#FFB74D"/>
<path fill-rule="evenodd" clip-rule="evenodd" d="M55.7956 63.9741C57.9236 64.3879 59.6775 67.5083 59.2637 69.6363L55.3385 89.823C54.9248 91.9509 52.8643 93.3406 50.7363 92.9268C48.6083 92.513 47.2187 90.4525 47.6325 88.3246L51.5577 68.1379C51.9714 66.0099 53.6677 63.5603 55.7956 63.9741Z" fill="#FFB74D"/>
<path fill-rule="evenodd" clip-rule="evenodd" d="M39.6978 50.9309C42.2507 50.9309 43.3743 48.3295 43.3743 51.1167L42.2528 69.6212H37.6303H33.0078L34.1293 51.1167C34.1293 48.3295 37.1448 50.9309 39.6978 50.9309Z" fill="#2D4C5C"/>
<path d="M48.5253 53.4448L55.1393 36.0202L51.1278 31.6841L42.7334 50.8893L48.5253 53.4448Z" fill="#EC407A"/>
<path fill-rule="evenodd" clip-rule="evenodd" d="M45.4768 22.626C48.2805 22.0652 51.4233 24.1457 52.7664 24.8689L63.4618 32.0663V40.9904C63.4618 40.9904 61.5522 40.337 58.8866 38.9107L51.2554 34.1008L44.6415 51.5254C43.8679 54.2031 40.584 58.5281 37.9062 57.7545C35.2285 56.9809 33.9334 49.1812 34.707 46.5035L41.7481 26.2721C42.1715 24.8065 42.6731 23.1869 45.4768 22.626Z" fill="#FF66A1"/>
<path d="M48.7111 53.3061L34.7198 46.438C34.7198 46.438 32.7488 53.7518 34.7196 55.7226C36.6905 57.6935 50.8807 71.6144 50.8807 71.6144L57.2807 64.715L48.7111 53.3061Z" fill="#546E7A"/>
<circle cx="53.8879" cy="11.9719" r="8.97186" fill="#FFB74D"/>
</svg>
