<svg width="81" height="80" viewBox="0 0 81 80" fill="none" xmlns="http://www.w3.org/2000/svg">
<path d="M21.5 49C21.5 63.9117 34.7076 76 51 76C67.2924 76 80.5 63.9117 80.5 49C80.5 34.0883 67.2924 22 51 22C34.7076 22 21.5 34.0883 21.5 49Z" fill="white"/>
<path d="M51.5 66.5C53.8333 71.3333 70 84.5 79.5 77.5C76 76 69.7 69.8 72.5 63C75.3 56.2 59.6667 62.5 51.5 66.5Z" fill="white"/>
<rect width="32" height="4" transform="matrix(-1 0 0 1 66.5 37)" fill="#FFB300"/>
<rect width="32" height="4" transform="matrix(-1 0 0 1 66.5 47)" fill="#FFB300"/>
<rect width="24" height="4" transform="matrix(-1 0 0 1 58.5 57)" fill="#FFB300"/>
<mask id="mask0" mask-type="alpha" maskUnits="userSpaceOnUse" x="21" y="22" width="60" height="58">
<path d="M21.5 49C21.5 63.9117 34.7076 76 51 76C67.2924 76 80.5 63.9117 80.5 49C80.5 34.0883 67.2924 22 51 22C34.7076 22 21.5 34.0883 21.5 49Z" fill="#2196F3"/>
<path d="M51.5 66.5C53.8333 71.3333 70 84.5 79.5 77.5C76 76 69.7 69.8 72.5 63C75.3 56.2 59.6667 62.5 51.5 66.5Z" fill="#2196F3"/>
</mask>
<g mask="url(#mask0)">
<path d="M62.5 28.6394C62.5 44.4564 48.6208 57.2787 31.5 57.2787C14.3792 57.2787 0.5 44.4564 0.5 28.6394C0.5 12.8223 14.3792 0 31.5 0C48.6208 0 62.5 12.8223 62.5 28.6394Z" fill="black" fill-opacity="0.1"/>
<path d="M24 47C21.548 52.1268 11.5339 66.2948 1.55085 58.8698C5.22881 57.2787 11.8492 50.7023 8.90678 43.4894C5.96441 36.2765 15.4181 42.7571 24 47Z" fill="black" fill-opacity="0.1"/>
</g>
<path d="M59.5 27C59.5 41.9117 46.2924 54 30 54C13.7076 54 0.5 41.9117 0.5 27C0.5 12.0883 13.7076 0 30 0C46.2924 0 59.5 12.0883 59.5 27Z" fill="#FFB300"/>
<path d="M29.5 44.5C27.1667 49.3333 11 62.5 1.5 55.5C5 54 11.3 47.8 8.5 41C5.7 34.2 21.3333 40.5 29.5 44.5Z" fill="#FFB300"/>
<rect x="14.5" y="15" width="32" height="4" fill="#FFECB3"/>
<rect x="14.5" y="25" width="32" height="4" fill="#FFECB3"/>
<rect x="14.5" y="35" width="24" height="4" fill="#FFECB3"/>
</svg>
